Hamza Rahal - Survival Analysis using R
…
dim(lung)

[1] 228  10

Code

View(lung)

Notice that lung is a plain data.frame object. You could see what it looks like as a tibble (prints nicely, tells you the type of variable each column is). You could then reassign lung to the as_tibble()-ified version.

Code

as_tibble(lung)

# A tibble: 228 × 10
    inst  time status   age   sex ph.ecog ph.karno pat.karno meal.cal wt.loss
   <dbl> <dbl>  <dbl> <dbl> <dbl>   <dbl>    <dbl>     <dbl>    <dbl>   <dbl>
 1     3   306      2    74     1       1       90       100     1175      NA
 2     3   455      2    68     1       0       90        90     1225      15
 3     3  1010      1    56     1       0       90        90       NA      15
 4     5   210      2    57     1       1       90        60     1150      11
 5     1   883      2    60     1       0      100        90       NA       0
 6    12  1022      1    74     1       1       50        80      513       0
 7     7   310      2    68     2       2       70        60      384      10
 8    11   361      2    71     2       2       60        80      538       1
 9     1   218      2    53     1       1       70        80      825      16
10     7   166      2    61     1       2       70        70      271      34
# ℹ 218 more rows

Code

lung <- as_tibble(lung)
lung

# A tibble: 228 × 10
    inst  time status   age   sex ph.ecog ph.karno pat.karno meal.cal wt.loss
   <dbl> <dbl>  <dbl> <dbl> <dbl>   <dbl>    <dbl>     <dbl>    <dbl>   <dbl>
 1     3   306      2    74     1       1       90       100     1175      NA
 2     3   455      2    68     1       0       90        90     1225      15
 3     3  1010      1    56     1       0       90        90       NA      15
 4     5   210      2    57     1       1       90        60     1150      11
 5     1   883      2    60     1       0      100        90       NA       0
 6    12  1022      1    74     1       1       50        80      513       0
 7     7   310      2    68     2       2       70        60      384      10
 8    11   361      2    71     2       2       60        80      538       1
 9     1   218      2    53     1       1       70        80      825      16
10     7   166      2    61     1       2       70        70      271      34
# ℹ 218 more rows
…
